…
Looking at the `study_table` we see a tibble with 12 columns and 9334
rows

``` r
study_table
#> # A tibble: 9,334 x 12
#>    repertoire_id junction junction_aa v_call j_call d_call v_family j_family
#>    <chr>         <chr>    <chr>       <chr>  <chr>  <chr>  <chr>    <chr>   
#>  1 TRB_CD4_949   AAATCTT… <NA>        unres… TCRBJ… unres… unresol… TCRBJ01 
#>  2 TRB_CD4_949   AACATGA… CASSLGGGYG… TCRBV… TCRBJ… TCRBD… TCRBV13  TCRBJ01 
#>  3 TRB_CD4_949   AACCCGA… CASSINPVQG… TCRBV… TCRBJ… TCRBD… TCRBV19  TCRBJ02 
#>  4 TRB_CD4_949   AACCCGA… CASSIPTGLA… TCRBV… TCRBJ… TCRBD… TCRBV19  TCRBJ02 
#>  5 TRB_CD4_949   AACCTGA… CASSVEVGSA… TCRBV… TCRBJ… unres… TCRBV09  TCRBJ01 
#>  6 TRB_CD4_949   AACCTGA… CASSVEVAGW… TCRBV… TCRBJ… TCRBD… TCRBV09  TCRBJ01 
#>  7 TRB_CD4_949   AACCTGA… CASSVMVGTE… TCRBV… TCRBJ… unres… TCRBV09  TCRBJ01 
#>  8 TRB_CD4_949   AACGCCT… CASSPGGTGM… TCRBV… TCRBJ… TCRBD… TCRBV05  TCRBJ02 
#>  9 TRB_CD4_949   AACGCCT… CASSDSGVPG… TCRBV… TCRBJ… TCRBD… TCRBV05  TCRBJ01 
#> 10 TRB_CD4_949   AACGCCT… CASSFLRGGS… TCRBV… TCRBJ… TCRBD… TCRBV05  TCRBJ01 
#> # … with 9,324 more rows, and 4 more variables: d_family <chr>,
#> #   reading_frame <chr>, duplicate_count <int>, duplicate_frequency <dbl>
```
…
# Subsetting Data

The tibble structure of the TCR data allows for easy subsampling of
data. To select the TCR sequences from any given samples in the dataset,
the `filter` function from the `dplyr` package can be used.

``` r
TRB_Unsorted_0 <- study_table %>% filter(repertoire_id == "TRB_Unsorted_0")
TRB_Unsorted_0
#> # A tibble: 1,000 x 12
#>    repertoire_id junction junction_aa v_call j_call d_call v_family j_family
#>    <chr>         <chr>    <chr>       <chr>  <chr>  <chr>  <chr>    <chr>   
#>  1 TRB_Unsorted… AAAAGAA… <NA>        TCRBV… TCRBJ… TCRBD… TCRBV19  TCRBJ02 
#>  2 TRB_Unsorted… AAACCTT… <NA>        TCRBV… TCRBJ… TCRBD… TCRBV04  TCRBJ01 
#>  3 TRB_Unsorted… AACATGA… CSVRMLKTGV… TCRBV… TCRBJ… TCRBD… TCRBV29  TCRBJ01 
#>  4 TRB_Unsorted… AACATGA… CSVEERTVSG… TCRBV… TCRBJ… TCRBD… TCRBV29  TCRBJ02 
#>  5 TRB_Unsorted… AACGCCT… CASSTGTGVY… TCRBV… TCRBJ… TCRBD… TCRBV05  TCRBJ01 
#>  6 TRB_Unsorted… AACGCCT… CASSYNSGTS… TCRBV… TCRBJ… TCRBD… TCRBV05  TCRBJ02 
#>  7 TRB_Unsorted… AACGCCT… CASSSDRGVD… TCRBV… TCRBJ… unres… TCRBV05  TCRBJ01 
#>  8 TRB_Unsorted… AACGCCT… CASSLLGLTN… TCRBV… TCRBJ… TCRBD… TCRBV05  TCRBJ01 
#>  9 TRB_Unsorted… AACGCCT… CASSLDQGRN… TCRBV… TCRBJ… unres… TCRBV05  TCRBJ01 
#> 10 TRB_Unsorted… AACGCCT… CASSLGSSGA… TCRBV… TCRBJ… TCRBD… TCRBV05  TCRBJ02 
#> # … with 990 more rows, and 4 more variables: d_family <chr>,
#> #   reading_frame <chr>, duplicate_count <int>, duplicate_frequency <dbl>
```

The `str_detect` function from `stringr` package can be used in
conjunction with the `filter` to find samples using a pattern

``` r
CMV <- study_table %>% filter(str_detect(repertoire_id, "CMV"))
CMV
#> # A tibble: 414 x 12
#>    repertoire_id junction junction_aa v_call j_call d_call v_family j_family
#>    <chr>         <chr>    <chr>       <chr>  <chr>  <chr>  <chr>    <chr>   
#>  1 TRB_CD8_CMV_… AAAAGAA… <NA>        TCRBV… TCRBJ… TCRBD… TCRBV19  TCRBJ02 
#>  2 TRB_CD8_CMV_… AACCTGA… CASSAGRTMP… TCRBV… TCRBJ… TCRBD… TCRBV09  TCRBJ01 
#>  3 TRB_CD8_CMV_… AACTGGA… <NA>        TCRBV… TCRBJ… TCRBD… TCRBV14  TCRBJ02 
#>  4 TRB_CD8_CMV_… AAGAACC… CASSIDVVRT… TCRBV… TCRBJ… TCRBD… TCRBV19  TCRBJ01 
#>  5 TRB_CD8_CMV_… AAGAAGC… CAWKAPRSTN… TCRBV… TCRBJ… unres… TCRBV30  TCRBJ01 
#>  6 TRB_CD8_CMV_… AAGAAGC… CAWSGGQGAS… TCRBV… TCRBJ… TCRBD… TCRBV30  TCRBJ02 
#>  7 TRB_CD8_CMV_… AAGAAGC… CAWSLKGAMN… TCRBV… TCRBJ… TCRBD… TCRBV30  TCRBJ01 
#>  8 TRB_CD8_CMV_… AAGATCC… CASSDSFNQP… unres… TCRBJ… TCRBD… unresol… TCRBJ01 
#>  9 TRB_CD8_CMV_… AAGATCC… CASSFGGLTE… TCRBV… TCRBJ… TCRBD… TCRBV07  TCRBJ01 
#> 10 TRB_CD8_CMV_… AAGATCC… CATAGLEGDE… TCRBV… TCRBJ… unres… TCRBV02  TCRBJ02 
#> # … with 404 more rows, and 4 more variables: d_family <chr>,
#> #   reading_frame <chr>, duplicate_count <int>, duplicate_frequency <dbl>
```
…
``` r
study_table <- left_join(study_table, TCRB_metadata, by = c("repertoire_id" = "samples"))
study_table
#> # A tibble: 9,334 x 14
#>    repertoire_id junction junction_aa v_call j_call d_call v_family j_family
#>    <chr>         <chr>    <chr>       <chr>  <chr>  <chr>  <chr>    <chr>   
#>  1 TRB_CD4_949   AAATCTT… <NA>        unres… TCRBJ… unres… unresol… TCRBJ01 
#>  2 TRB_CD4_949   AACATGA… CASSLGGGYG… TCRBV… TCRBJ… TCRBD… TCRBV13  TCRBJ01 
#>  3 TRB_CD4_949   AACCCGA… CASSINPVQG… TCRBV… TCRBJ… TCRBD… TCRBV19  TCRBJ02 
#>  4 TRB_CD4_949   AACCCGA… CASSIPTGLA… TCRBV… TCRBJ… TCRBD… TCRBV19  TCRBJ02 
#>  5 TRB_CD4_949   AACCTGA… CASSVEVGSA… TCRBV… TCRBJ… unres… TCRBV09  TCRBJ01 
#>  6 TRB_CD4_949   AACCTGA… CASSVEVAGW… TCRBV… TCRBJ… TCRBD… TCRBV09  TCRBJ01 
#>  7 TRB_CD4_949   AACCTGA… CASSVMVGTE… TCRBV… TCRBJ… unres… TCRBV09  TCRBJ01 
#>  8 TRB_CD4_949   AACGCCT… CASSPGGTGM… TCRBV… TCRBJ… TCRBD… TCRBV05  TCRBJ02 
#>  9 TRB_CD4_949   AACGCCT… CASSDSGVPG… TCRBV… TCRBJ… TCRBD… TCRBV05  TCRBJ01 
#> 10 TRB_CD4_949   AACGCCT… CASSFLRGGS… TCRBV… TCRBJ… TCRBD… TCRBV05  TCRBJ01 
#> # … with 9,324 more rows, and 6 more variables: d_family <chr>,
#> #   reading_frame <chr>, duplicate_count <int>, duplicate_frequency <dbl>,
#> #   day <int>, phenotype <chr>
```

Now the metadata information can be used to further subset the data. For
instance to select all “Unsorted” samples collected more than 300 days
after bone marrow transplant, we would use the following code

``` r
unsorted_300 <- study_table %>% filter(day > 300 & phenotype == "Unsorted")
unsorted_300
#> # A tibble: 4,000 x 14
#>    repertoire_id junction junction_aa v_call j_call d_call v_family j_family
#>    <chr>         <chr>    <chr>       <chr>  <chr>  <chr>  <chr>    <chr>   
#>  1 TRB_Unsorted… AACATGA… CSAYGTATAT… TCRBV… TCRBJ… TCRBD… TCRBV29  TCRBJ01 
#>  2 TRB_Unsorted… AACATGA… CASSSGRTYE… TCRBV… TCRBJ… TCRBD… TCRBV13  TCRBJ02 
#>  3 TRB_Unsorted… AACCTGA… CASTSRGGGE… TCRBV… TCRBJ… TCRBD… TCRBV09  TCRBJ02 
#>  4 TRB_Unsorted… AACCTGA… CASSAGRTMP… TCRBV… TCRBJ… TCRBD… TCRBV09  TCRBJ01 
#>  5 TRB_Unsorted… AACCTGA… CASSVEVGSA… TCRBV… TCRBJ… unres… TCRBV09  TCRBJ01 
#>  6 TRB_Unsorted… AACCTGA… CASSVAGGQP… TCRBV… TCRBJ… TCRBD… TCRBV09  TCRBJ01 
#>  7 TRB_Unsorted… AACCTGA… CASSVMVGTE… TCRBV… TCRBJ… unres… TCRBV09  TCRBJ01 
#>  8 TRB_Unsorted… AACCTGA… CASSVLQGTE… TCRBV… TCRBJ… TCRBD… TCRBV09  TCRBJ01 
#>  9 TRB_Unsorted… AACCTGA… CASSVGMNSP… TCRBV… TCRBJ… TCRBD… TCRBV09  TCRBJ01 
#> 10 TRB_Unsorted… AACGCCT… CASSQEGGRD… TCRBV… TCRBJ… TCRBD… TCRBV05  TCRBJ02 
#> # … with 3,990 more rows, and 6 more variables: d_family <chr>,
#> #   reading_frame <chr>, duplicate_count <int>, duplicate_frequency <dbl>,
#> #   day <int>, phenotype <chr>
```
…
``` r
aa_table <- productiveSeq(study_table = study_table, aggregate = "junction_aa", 
                          prevalence = FALSE)
aa_table
#> # A tibble: 7,533 x 11
#>    repertoire_id junction_aa v_call d_call j_call v_family d_family j_family
#>    <chr>         <chr>       <chr>  <chr>  <chr>  <chr>    <chr>    <chr>   
#>  1 TRB_CD4_949   CAIKPGQGAS… TCRBV… TCRBD… TCRBJ… TCRBV10  TCRBD01  TCRBJ01 
#>  2 TRB_CD4_949   CAIRAGTSTD… TCRBV… TCRBD… TCRBJ… TCRBV10  TCRBD02  TCRBJ02 
#>  3 TRB_CD4_949   CAISDETPGE… TCRBV… unres… TCRBJ… TCRBV10  unresol… TCRBJ02 
#>  4 TRB_CD4_949   CAISDLGRGD… TCRBV… TCRBD… TCRBJ… TCRBV10  TCRBD01  TCRBJ01 
#>  5 TRB_CD4_949   CAISDLKEQP… TCRBV… TCRBD… TCRBJ… TCRBV10  TCRBD02  TCRBJ01 
#>  6 TRB_CD4_949   CAISDQGGDQ… TCRBV… TCRBD… TCRBJ… TCRBV10  TCRBD02  TCRBJ01 
#>  7 TRB_CD4_949   CAISEREQGA… TCRBV… TCRBD… TCRBJ… TCRBV10  TCRBD01  TCRBJ01 
#>  8 TRB_CD4_949   CAISEWSGSS… TCRBV… unres… TCRBJ… TCRBV10  unresol… TCRBJ02 
#>  9 TRB_CD4_949   CAISGQGSTE… TCRBV… TCRBD… TCRBJ… TCRBV10  TCRBD01  TCRBJ01 
#> 10 TRB_CD4_949   CAISLNSGGA… TCRBV… TCRBD… TCRBJ… TCRBV10  TCRBD02  TCRBJ02 
#> # … with 7,523 more rows, and 3 more variables: reading_frame <chr>,
#> #   duplicate_count <int>, duplicate_frequency <dbl>
```

Alternatively you can aggregate by `junction` to group sequences by CDR3
nucleotide sequences. This option will produce a tibble similar to the
output of `readImmunoSeq`. Many of the functions within LymphoSeq2 use
the results from `productiveSeq` function. Please be sure to check the
function documentation.

``` r
nuc_table <- productiveSeq(study_table = study_table, aggregate = "junction", 
                          prevalence = FALSE)
nuc_table
#> # A tibble: 7,679 x 12
#>    repertoire_id junction junction_aa v_call d_call j_call v_family d_family
#>    <chr>         <chr>    <chr>       <chr>  <chr>  <chr>  <chr>    <chr>   
#>  1 TRB_CD4_949   AACATGA… CASSLGGGYG… TCRBV… TCRBD… TCRBJ… TCRBV13  TCRBD02 
#>  2 TRB_CD4_949   AACCCGA… CASSINPVQG… TCRBV… TCRBD… TCRBJ… TCRBV19  TCRBD01 
#>  3 TRB_CD4_949   AACCCGA… CASSIPTGLA… TCRBV… TCRBD… TCRBJ… TCRBV19  TCRBD02 
#>  4 TRB_CD4_949   AACCTGA… CASSVEVGSA… TCRBV… unres… TCRBJ… TCRBV09  unresol…
#>  5 TRB_CD4_949   AACCTGA… CASSVEVAGW… TCRBV… TCRBD… TCRBJ… TCRBV09  TCRBD01 
#>  6 TRB_CD4_949   AACCTGA… CASSVMVGTE… TCRBV… unres… TCRBJ… TCRBV09  unresol…
#>  7 TRB_CD4_949   AACGCCT… CASSPGGTGM… TCRBV… TCRBD… TCRBJ… TCRBV05  TCRBD01 
#>  8 TRB_CD4_949   AACGCCT… CASSDSGVPG… TCRBV… TCRBD… TCRBJ… TCRBV05  TCRBD01 
#>  9 TRB_CD4_949   AACGCCT… CASSFLRGGS… TCRBV… TCRBD… TCRBJ… TCRBV05  TCRBD02 
#> 10 TRB_CD4_949   AACGCCT… CASSLATKNT… TCRBV… TCRBD… TCRBJ… TCRBV05  TCRBD01 
#> # … with 7,669 more rows, and 4 more variables: j_family <chr>,
#> #   reading_frame <chr>, duplicate_count <int>, duplicate_frequency <dbl>
```
…
Notice in the example below that there are no amino acid sequences given
in the first and fourth row of the study\_table table for sample
“TRB\_Unsorted\_949”. This is because the nucleotide sequence is out
of frame and does not produce a productively transcribed amino acid
sequence. If an asterisk (\*) appears in the amino acid sequences, this
would indicate an early stop codon.

``` r
study_table %>% filter(repertoire_id == "TRB_Unsorted_0") 
#> # A tibble: 1,000 x 14
#>    repertoire_id junction junction_aa v_call j_call d_call v_family j_family
#>    <chr>         <chr>    <chr>       <chr>  <chr>  <chr>  <chr>    <chr>   
#>  1 TRB_Unsorted… AAAAGAA… <NA>        TCRBV… TCRBJ… TCRBD… TCRBV19  TCRBJ02 
#>  2 TRB_Unsorted… AAACCTT… <NA>        TCRBV… TCRBJ… TCRBD… TCRBV04  TCRBJ01 
#>  3 TRB_Unsorted… AACATGA… CSVRMLKTGV… TCRBV… TCRBJ… TCRBD… TCRBV29  TCRBJ01 
#>  4 TRB_Unsorted… AACATGA… CSVEERTVSG… TCRBV… TCRBJ… TCRBD… TCRBV29  TCRBJ02 
#>  5 TRB_Unsorted… AACGCCT… CASSTGTGVY… TCRBV… TCRBJ… TCRBD… TCRBV05  TCRBJ01 
#>  6 TRB_Unsorted… AACGCCT… CASSYNSGTS… TCRBV… TCRBJ… TCRBD… TCRBV05  TCRBJ02 
#>  7 TRB_Unsorted… AACGCCT… CASSSDRGVD… TCRBV… TCRBJ… unres… TCRBV05  TCRBJ01 
#>  8 TRB_Unsorted… AACGCCT… CASSLLGLTN… TCRBV… TCRBJ… TCRBD… TCRBV05  TCRBJ01 
#>  9 TRB_Unsorted… AACGCCT… CASSLDQGRN… TCRBV… TCRBJ… unres… TCRBV05  TCRBJ01 
#> 10 TRB_Unsorted… AACGCCT… CASSLGSSGA… TCRBV… TCRBJ… TCRBD… TCRBV05  TCRBJ02 
#> # … with 990 more rows, and 6 more variables: d_family <chr>,
#> #   reading_frame <chr>, duplicate_count <int>, duplicate_frequency <dbl>,
#> #   day <int>, phenotype <chr>
```

After `productiveSeq` is run, the unproductive sequences are removed and
the `duplicate_frequency` is recalculated for each sequence. If there
were two identical amino acid sequences that differed in their
nucleotide sequence, they would be combined and their counts added
together.

``` r
aa_table %>% filter(repertoire_id == "TRB_Unsorted_0")
#> # A tibble: 833 x 11
#>    repertoire_id junction_aa v_call d_call j_call v_family d_family j_family
#>    <chr>         <chr>       <chr>  <chr>  <chr>  <chr>    <chr>    <chr>   
#>  1 TRB_Unsorted… CAAGDTTLYE… TCRBV… TCRBD… TCRBJ… TCRBV06  TCRBD02  TCRBJ02 
#>  2 TRB_Unsorted… CAARGGGESY… TCRBV… TCRBD… TCRBJ… TCRBV06  TCRBD02  TCRBJ02 
#>  3 TRB_Unsorted… CAGGRGLEEA… TCRBV… TCRBD… TCRBJ… TCRBV28  TCRBD01  TCRBJ01 
#>  4 TRB_Unsorted… CAGQGVGYTE… TCRBV… unres… TCRBJ… TCRBV02  unresol… TCRBJ01 
#>  5 TRB_Unsorted… CAGRVGYTF   TCRBV… unres… TCRBJ… TCRBV02  unresol… TCRBJ01 
#>  6 TRB_Unsorted… CAIAQPNEKL… TCRBV… unres… TCRBJ… TCRBV10  unresol… TCRBJ01 
#>  7 TRB_Unsorted… CAIGAAYEQYF TCRBV… TCRBD… TCRBJ… TCRBV10  TCRBD02  TCRBJ02 
#>  8 TRB_Unsorted… CAIGYNQPQHF TCRBV… unres… TCRBJ… TCRBV10  unresol… TCRBJ01 
#>  9 TRB_Unsorted… CAINPGGTGN… TCRBV… TCRBD… TCRBJ… TCRBV10  TCRBD01  TCRBJ01 
#> 10 TRB_Unsorted… CAIRDGYNSP… TCRBV… unres… TCRBJ… TCRBV10  unresol… TCRBJ01 
#> # … with 823 more rows, and 3 more variables: reading_frame <chr>,
#> #   duplicate_count <int>, duplicate_frequency <dbl>
```
…
