Differential abundance analysis — differentialAbundance • LymphoSeqTest
…
atable <- productiveSeq(study_table = stable, aggregate = "junction_aa")

differentialAbundance(study_table = atable, repertoire_ids = c("TRB_Unsorted_949", "TRB_Unsorted_1320"), 
                      type = "junction_aa", q = 0.01, zero = 0.001)
#> # A tibble: 1,332 x 6
#>    junction_aa       TRB_Unsorted_949 TRB_Unsorted_1320        p       q    l2fc
#>    <chr>                        <dbl>             <dbl>    <dbl>   <dbl>   <dbl>
#>  1 CACALGDGYTF                      0                 2  1   e+0 1   e+0 -Inf   
#>  2 CACQRTGSSYEQYF                   0                 3  1   e+0 1   e+0 -Inf   
#>  3 CAIGLSNQPQHF                     2                67  1   e+0 1   e+0   -5.07
#>  4 CAIKMETPNGEQYF                  29               326  2.66e-5 2.66e-5   -3.49
#>  5 CAIRGTEDNNSPLHF                  0                16  1   e+0 1   e+0 -Inf   
#>  6 CAISDSSYEQYF                     1                23  5.71e-1 5.71e-1   -4.52
#>  7 CAISDTGELFF                      8                83  1.39e-2 1.39e-2   -3.38
#>  8 CAISEFGLMAREYGYTF                0                 1  1   e+0 1   e+0 -Inf   
#>  9 CAISEGQGVKPQHF                   0               167  4.92e-3 4.92e-3 -Inf   
#> 10 CAISESGVLNEKLFF                 13               150  4.69e-3 4.69e-3   -3.53
#> # ... with 1,322 more rows
…
