Gene frequencies — geneFreq • LymphoSeqTest
…
ntable <- productiveSeq(study_table = stable, aggregate = "nucleotide")

geneFreq(ntable, locus = "VDJ", family = FALSE)
#> # A tibble: 655 x 5
#>    repertoire_id gene_name     duplicate_count gene_type gene_frequency
#>    <chr>         <chr>                   <dbl> <chr>              <dbl>
#>  1 TRB_CD4_949   TCRBD01-01               3034 d_call            0.0822
#>  2 TRB_CD4_949   TCRBD01-01*01           14087 d_call            0.382 
#>  3 TRB_CD4_949   TCRBD02-01                597 d_call            0.0162
#>  4 TRB_CD4_949   TCRBD02-01*01             760 d_call            0.0206
#>  5 TRB_CD4_949   TCRBD02-01*02            7258 d_call            0.197 
#>  6 TRB_CD4_949   TCRBJ01-01*01            5168 j_call            0.201 
#>  7 TRB_CD4_949   TCRBJ01-02*01            1229 j_call            0.0477
#>  8 TRB_CD4_949   TCRBJ01-03*01            2348 j_call            0.0911
#>  9 TRB_CD4_949   TCRBJ01-04*01             590 j_call            0.0229
#> 10 TRB_CD4_949   TCRBJ01-05*01            4743 j_call            0.184 
#> # ... with 645 more rows
…
