Analysis of Adaptive Immune Receptor Repertoire Sequencing data with LymphoSeq2 • LymphoSeq2
…
Looking at the study_table we see a tibble with 12 columns and 9334 rows

study_table
#> # A tibble: 9,334 × 144
#>    sequence_id sequence   sequence_aa rev_comp productive vj_in_frame stop_codon
#>          <int> <chr>      <chr>       <lgl>    <lgl>      <lgl>       <lgl>     
#>  1           1 CCTCTCACT… CASSIHQPQHF FALSE    TRUE       NA          FALSE     
#>  2           2 ATTTCCCGC… NA          FALSE    FALSE      NA          TRUE      
#>  3           3 ATCCTGAGT… CAWSAQETQYF FALSE    TRUE       NA          FALSE     
#>  4           4 GAGTCAGCT… CASSESAGST… FALSE    TRUE       NA          FALSE     
#>  5           5 GCCCTCAGA… NA          FALSE    FALSE      NA          TRUE      
#>  6           6 ATTCCCTGG… NA          FALSE    FALSE      NA          TRUE      
#>  7           7 GTGACATCG… CASSPRQGES… FALSE    TRUE       NA          FALSE     
#>  8           8 ACCTTGGAG… CASSLDGQGQ… FALSE    TRUE       NA          FALSE     
#>  9           9 GTGACCAGT… CSAKTSGITY… FALSE    TRUE       NA          FALSE     
#> 10          10 ACCCTGCAG… CASSQD*ASS… FALSE    FALSE      NA          TRUE      
#> # … with 9,324 more rows, and 137 more variables: complete_vdj <lgl>,
#> #   locus <chr>, v_call <chr>, d_call <chr>, d2_call <chr>, j_call <chr>,
#> #   c_call <chr>, sequence_alignment <chr>, sequence_alignment_aa <chr>,
#> #   germline_alignment <chr>, germline_alignment_aa <chr>, junction <chr>,
#> #   junction_aa <chr>, np1 <chr>, np1_aa <chr>, np2 <chr>, np2_aa <chr>,
#> #   np3 <chr>, np3_aa <chr>, cdr1 <chr>, cdr1_aa <chr>, cdr2 <chr>,
#> #   cdr2_aa <chr>, cdr3 <chr>, cdr3_aa <chr>, fwr1 <chr>, fwr1_aa <chr>, …
…
study_table %>% 
dplyr::pull(repertoire_id) %>% 
unique()
#>  [1] "TRB_CD4_949"       "TRB_CD8_949"       "TRB_CD8_CMV_369"  
#>  [4] "TRB_Unsorted_0"    "TRB_Unsorted_1320" "TRB_Unsorted_1496"
#>  [7] "TRB_Unsorted_32"   "TRB_Unsorted_369"  "TRB_Unsorted_83"  
#> [10] "TRB_Unsorted_949"

Subsetting Data

The tibble structure of the TCR data allows for easy subsampling of data. To select the TCR sequences from any given samples in the dataset, the filter function from the dplyr package can be used.

TRB_Unsorted_0 <- study_table %>% filter(repertoire_id == "TRB_Unsorted_0")
TRB_Unsorted_0
#> # A tibble: 1,000 × 144
#>    sequence_id sequence   sequence_aa rev_comp productive vj_in_frame stop_codon
#>          <int> <chr>      <chr>       <lgl>    <lgl>      <lgl>       <lgl>     
#>  1           1 TCAATTCCC… NA          FALSE    FALSE      NA          TRUE      
#>  2           2 CTGATTCTG… CASSPVSNEQ… FALSE    TRUE       NA          FALSE     
#>  3           3 ATCAATTCC… CASSQEVPPY… FALSE    TRUE       NA          FALSE     
#>  4           4 TGCCATCCC… NA          FALSE    FALSE      NA          TRUE      
#>  5           5 CACACCCTG… CASSQEASGR… FALSE    TRUE       NA          FALSE     
#>  6           6 GCCAGCACC… CASSLEHTGA… FALSE    TRUE       NA          FALSE     
#>  7           7 CCCCTGACC… CASSPGDEQYF FALSE    TRUE       NA          FALSE     
#>  8           8 AGTGCCCAT… CSARSPSTGT… FALSE    TRUE       NA          FALSE     
#>  9           9 GGAGCTTGG… NA          FALSE    FALSE      NA          TRUE      
#> 10          10 CTGTAGTCT… CASSEKREGH… FALSE    TRUE       NA          FALSE     
#> # … with 990 more rows, and 137 more variables: complete_vdj <lgl>,
#> #   locus <chr>, v_call <chr>, d_call <chr>, d2_call <chr>, j_call <chr>,
#> #   c_call <chr>, sequence_alignment <chr>, sequence_alignment_aa <chr>,
#> #   germline_alignment <chr>, germline_alignment_aa <chr>, junction <chr>,
#> #   junction_aa <chr>, np1 <chr>, np1_aa <chr>, np2 <chr>, np2_aa <chr>,
#> #   np3 <chr>, np3_aa <chr>, cdr1 <chr>, cdr1_aa <chr>, cdr2 <chr>,
#> #   cdr2_aa <chr>, cdr3 <chr>, cdr3_aa <chr>, fwr1 <chr>, fwr1_aa <chr>, …

The str_detect function from stringr package can be used in conjunction with the filter to find samples using a pattern

CMV <- study_table %>% 
       dplyr::filter(str_detect(repertoire_id, "CMV"))
CMV
#> # A tibble: 414 × 144
#>    sequence_id sequence   sequence_aa rev_comp productive vj_in_frame stop_codon
#>          <int> <chr>      <chr>       <lgl>    <lgl>      <lgl>       <lgl>     
#>  1           1 CAGCGCACA… CASSPPTGER… FALSE    TRUE       NA          FALSE     
#>  2           2 CAGCCCTCA… CASSPAGAYY… FALSE    TRUE       NA          FALSE     
#>  3           3 CAGCCTGCA… CASSQDWERL… FALSE    TRUE       NA          FALSE     
#>  4           4 TCGGCCCTG… CASSQDLMTV… FALSE    TRUE       NA          FALSE     
#>  5           5 ATCCTGGAG… CASSLQGREK… FALSE    TRUE       NA          FALSE     
#>  6           6 GAGGATCCA… NA          FALSE    FALSE      NA          TRUE      
#>  7           7 ACCCTGCAG… CASSQDLGQA… FALSE    TRUE       NA          FALSE     
#>  8           8 CTCCTCACT… CAISDTGELFF FALSE    TRUE       NA          FALSE     
#>  9           9 GAGTCCGCC… CASSLAGDSQ… FALSE    TRUE       NA          FALSE     
#> 10          10 GAGTTGGCT… CASRDGQGSG… FALSE    TRUE       NA          FALSE     
#> # … with 404 more rows, and 137 more variables: complete_vdj <lgl>,
#> #   locus <chr>, v_call <chr>, d_call <chr>, d2_call <chr>, j_call <chr>,
#> #   c_call <chr>, sequence_alignment <chr>, sequence_alignment_aa <chr>,
#> #   germline_alignment <chr>, germline_alignment_aa <chr>, junction <chr>,
#> #   junction_aa <chr>, np1 <chr>, np1_aa <chr>, np2 <chr>, np2_aa <chr>,
#> #   np3 <chr>, np3_aa <chr>, cdr1 <chr>, cdr1_aa <chr>, cdr2 <chr>,
#> #   cdr2_aa <chr>, cdr3 <chr>, cdr3_aa <chr>, fwr1 <chr>, fwr1_aa <chr>, …
…
study_table <- dplyr::left_join(study_table, TCRB_metadata, by = c("repertoire_id" = "samples"))
study_table
#> # A tibble: 9,334 × 146
#>    sequence_id sequence   sequence_aa rev_comp productive vj_in_frame stop_codon
#>          <int> <chr>      <chr>       <lgl>    <lgl>      <lgl>       <lgl>     
#>  1           1 CCTCTCACT… CASSIHQPQHF FALSE    TRUE       NA          FALSE     
#>  2           2 ATTTCCCGC… NA          FALSE    FALSE      NA          TRUE      
#>  3           3 ATCCTGAGT… CAWSAQETQYF FALSE    TRUE       NA          FALSE     
#>  4           4 GAGTCAGCT… CASSESAGST… FALSE    TRUE       NA          FALSE     
#>  5           5 GCCCTCAGA… NA          FALSE    FALSE      NA          TRUE      
#>  6           6 ATTCCCTGG… NA          FALSE    FALSE      NA          TRUE      
#>  7           7 GTGACATCG… CASSPRQGES… FALSE    TRUE       NA          FALSE     
#>  8           8 ACCTTGGAG… CASSLDGQGQ… FALSE    TRUE       NA          FALSE     
#>  9           9 GTGACCAGT… CSAKTSGITY… FALSE    TRUE       NA          FALSE     
#> 10          10 ACCCTGCAG… CASSQD*ASS… FALSE    FALSE      NA          TRUE      
#> # … with 9,324 more rows, and 139 more variables: complete_vdj <lgl>,
#> #   locus <chr>, v_call <chr>, d_call <chr>, d2_call <chr>, j_call <chr>,
#> #   c_call <chr>, sequence_alignment <chr>, sequence_alignment_aa <chr>,
#> #   germline_alignment <chr>, germline_alignment_aa <chr>, junction <chr>,
#> #   junction_aa <chr>, np1 <chr>, np1_aa <chr>, np2 <chr>, np2_aa <chr>,
#> #   np3 <chr>, np3_aa <chr>, cdr1 <chr>, cdr1_aa <chr>, cdr2 <chr>,
#> #   cdr2_aa <chr>, cdr3 <chr>, cdr3_aa <chr>, fwr1 <chr>, fwr1_aa <chr>, …

Now the metadata information can be used to further subset the data. For instance to select all “Unsorted” samples collected more than 300 days after bone marrow transplant, we would use the following code

unsorted_300 <- study_table %>% 
                dplyr::filter(day > 300 & phenotype == "Unsorted")
unsorted_300
#> # A tibble: 4,000 × 146
#>    sequence_id sequence   sequence_aa rev_comp productive vj_in_frame stop_codon
#>          <int> <chr>      <chr>       <lgl>    <lgl>      <lgl>       <lgl>     
#>  1           1 CACCCTGCA… NA          FALSE    FALSE      NA          TRUE      
#>  2           2 AGTGCCCAT… CSALLGLAGR… FALSE    TRUE       NA          FALSE     
#>  3           3 CAGCGCACA… CASSFRIGGS… FALSE    TRUE       NA          FALSE     
#>  4           4 TCGGCTGCT… CASSKGTSDL… FALSE    TRUE       NA          FALSE     
#>  5           5 GCTGCTCCC… CASSAPGTSG… FALSE    TRUE       NA          FALSE     
#>  6           6 ACCAGTGCC… CSARDLWGPT… FALSE    TRUE       NA          FALSE     
#>  7           7 ATCCGGTCC… CASSEVSGAY… FALSE    TRUE       NA          FALSE     
#>  8           8 AAGATCCAG… CASSSPTRDT… FALSE    TRUE       NA          FALSE     
#>  9           9 ATCCAGCGC… CASSLDGPLD… FALSE    TRUE       NA          FALSE     
#> 10          10 AGCCCTGAA… CSVEDPHGTS… FALSE    TRUE       NA          FALSE     
#> # … with 3,990 more rows, and 139 more variables: complete_vdj <lgl>,
#> #   locus <chr>, v_call <chr>, d_call <chr>, d2_call <chr>, j_call <chr>,
#> #   c_call <chr>, sequence_alignment <chr>, sequence_alignment_aa <chr>,
#> #   germline_alignment <chr>, germline_alignment_aa <chr>, junction <chr>,
#> #   junction_aa <chr>, np1 <chr>, np1_aa <chr>, np2 <chr>, np2_aa <chr>,
#> #   np3 <chr>, np3_aa <chr>, cdr1 <chr>, cdr1_aa <chr>, cdr2 <chr>,
#> #   cdr2_aa <chr>, cdr3 <chr>, cdr3_aa <chr>, fwr1 <chr>, fwr1_aa <chr>, …

Extracting productive sequences

When AIRR-seq samples are derived from genomic DNA rather than complimentary DNA made from RNA, then you will find productive and unproductive sequences. Productive sequences are defined as in-frame sequences without any early stop codons. To filter out these productive sequences, you can use the productiveSeq to remove unproductive sequences and recompute the duplicate_frequency to reflect the productive amino acid or nucleotide sequence frequencies.

If you are interested in just the complementarity determining region 3 (CDR3) amino acid sequences, then set aggregate to junction_aa and the duplicate_count for duplicate amino acid sequences will be summed. The resulting tibble will have junction_aa, duplicate_count, duplicate_frequency, reading_frame, and the most frequent VDJ gene combinations for each of the duplicated amino acid sequences and the corresponding gene family names. These gene names are only kept for consistency of the tibble structure, but since a single amino acid sequence can be generated from different VDJ combinations, it is inadvisable to use these values for downstream analysis

aa_table <- LymphoSeq2::productiveSeq(study_table = study_table, aggregate = "junction_aa", 
                          prevalence = FALSE)
  aa_table
#> # A tibble: 7,533 × 11
#>    repertoire_id junction_aa     v_call d_call j_call v_family d_family j_family
#>    <chr>         <chr>           <chr>  <chr>  <chr>  <chr>    <chr>    <chr>   
#>  1 TRB_CD4_949   CAIKPGQGASNSPL… TCRBV… TCRBD… TCRBJ… TCRBV10  TCRBD01  TCRBJ01 
#>  2 TRB_CD4_949   CAIRAGTSTDTQYF  TCRBV… TCRBD… TCRBJ… TCRBV10  TCRBD02  TCRBJ02 
#>  3 TRB_CD4_949   CAISDETPGELFF   TCRBV… TCRBD… TCRBJ… TCRBV10  TCRBD01  TCRBJ02 
#>  4 TRB_CD4_949   CAISDLGRGDTEAFF TCRBV… TCRBD… TCRBJ… TCRBV10  TCRBD01  TCRBJ01 
#>  5 TRB_CD4_949   CAISDLKEQPQHF   TCRBV… TCRBD… TCRBJ… TCRBV10  TCRBD02  TCRBJ01 
#>  6 TRB_CD4_949   CAISDQGGDQPQHF  TCRBV… TCRBD… TCRBJ… TCRBV10  TCRBD02  TCRBJ01 
#>  7 TRB_CD4_949   CAISEREQGAFF    TCRBV… TCRBD… TCRBJ… TCRBV10  TCRBD01  TCRBJ01 
#>  8 TRB_CD4_949   CAISEWSGSSYNEQ… TCRBV… TCRBD… TCRBJ… TCRBV10  TCRBD01  TCRBJ02 
#>  9 TRB_CD4_949   CAISGQGSTEAFF   TCRBV… TCRBD… TCRBJ… TCRBV10  TCRBD01  TCRBJ01 
#> 10 TRB_CD4_949   CAISLNSGGAYEQYF TCRBV… TCRBD… TCRBJ… TCRBV10  TCRBD02  TCRBJ02 
#> # … with 7,523 more rows, and 3 more variables: reading_frame <chr>,
#> #   duplicate_count <dbl>, duplicate_frequency <dbl>

Alternatively you can aggregate by junction to group sequences by CDR3 nucleotide sequences. This option will produce a tibble similar to the output of readImmunoSeq. Many of the functions within LymphoSeq2 use the results from productiveSeq function. Please be sure to check the function documentation.

nuc_table <- LymphoSeq2::productiveSeq(study_table = study_table, aggregate = "junction", 
                          prevalence = FALSE)
nuc_table
#> # A tibble: 7,679 × 12
#>    repertoire_id junction     junction_aa v_call d_call j_call v_family d_family
#>    <chr>         <chr>        <chr>       <chr>  <chr>  <chr>  <chr>    <chr>   
#>  1 TRB_CD4_949   AACATGAGCTC… CASSLGGGYG… TCRBV… TCRBD… TCRBJ… TCRBV13  TCRBD02 
#>  2 TRB_CD4_949   AACCCGACAGC… CASSINPVQG… TCRBV… TCRBD… TCRBJ… TCRBV19  TCRBD01 
#>  3 TRB_CD4_949   AACCCGACAGC… CASSIPTGLA… TCRBV… TCRBD… TCRBJ… TCRBV19  TCRBD02 
#>  4 TRB_CD4_949   AACCTGAGCTC… CASSVEVGSA… TCRBV… TCRBD… TCRBJ… TCRBV09  TCRBD01 
#>  5 TRB_CD4_949   AACCTGAGCTC… CASSVEVAGW… TCRBV… TCRBD… TCRBJ… TCRBV09  TCRBD01 
#>  6 TRB_CD4_949   AACCTGAGCTC… CASSVMVGTE… TCRBV… TCRBD… TCRBJ… TCRBV09  TCRBD01 
#>  7 TRB_CD4_949   AACGCCTTGGA… CASSPGGTGM… TCRBV… TCRBD… TCRBJ… TCRBV05  TCRBD01 
#>  8 TRB_CD4_949   AACGCCTTGGA… CASSDSGVPG… TCRBV… TCRBD… TCRBJ… TCRBV05  TCRBD01 
#>  9 TRB_CD4_949   AACGCCTTGGA… CASSFLRGGS… TCRBV… TCRBD… TCRBJ… TCRBV05  TCRBD02 
#> 10 TRB_CD4_949   AACGCCTTGGA… CASSLATKNT… TCRBV… TCRBD… TCRBJ… TCRBV05  TCRBD01 
#> # … with 7,669 more rows, and 4 more variables: j_family <chr>,
#> #   reading_frame <chr>, duplicate_count <dbl>, duplicate_frequency <dbl>

If the parameter prevalence is set to TRUE, then a new column is added to each of the data frames giving the prevalence (%) of each TCR beta CDR3 amino acid sequence in 55 healthy donor peripheral blood samples. Values range from 0 to 100% where 100% means the sequence appeared in the blood of all 55 individuals.

Notice in the example below that there are no amino acid sequences given in the first and fourth row of the study_table table for sample “TRB_Unsorted_949”. This is because the nucleotide sequence is out of frame and does not produce a productively transcribed amino acid sequence. If an asterisk (*) appears in the amino acid sequences, this would indicate an early stop codon.

study_table %>% 
dplyr::filter(repertoire_id == "TRB_Unsorted_0") 
#> # A tibble: 1,000 × 146
#>    sequence_id sequence   sequence_aa rev_comp productive vj_in_frame stop_codon
#>          <int> <chr>      <chr>       <lgl>    <lgl>      <lgl>       <lgl>     
#>  1           1 TCAATTCCC… NA          FALSE    FALSE      NA          TRUE      
#>  2           2 CTGATTCTG… CASSPVSNEQ… FALSE    TRUE       NA          FALSE     
#>  3           3 ATCAATTCC… CASSQEVPPY… FALSE    TRUE       NA          FALSE     
#>  4           4 TGCCATCCC… NA          FALSE    FALSE      NA          TRUE      
#>  5           5 CACACCCTG… CASSQEASGR… FALSE    TRUE       NA          FALSE     
#>  6           6 GCCAGCACC… CASSLEHTGA… FALSE    TRUE       NA          FALSE     
#>  7           7 CCCCTGACC… CASSPGDEQYF FALSE    TRUE       NA          FALSE     
#>  8           8 AGTGCCCAT… CSARSPSTGT… FALSE    TRUE       NA          FALSE     
#>  9           9 GGAGCTTGG… NA          FALSE    FALSE      NA          TRUE      
#> 10          10 CTGTAGTCT… CASSEKREGH… FALSE    TRUE       NA          FALSE     
#> # … with 990 more rows, and 139 more variables: complete_vdj <lgl>,
#> #   locus <chr>, v_call <chr>, d_call <chr>, d2_call <chr>, j_call <chr>,
#> #   c_call <chr>, sequence_alignment <chr>, sequence_alignment_aa <chr>,
#> #   germline_alignment <chr>, germline_alignment_aa <chr>, junction <chr>,
#> #   junction_aa <chr>, np1 <chr>, np1_aa <chr>, np2 <chr>, np2_aa <chr>,
#> #   np3 <chr>, np3_aa <chr>, cdr1 <chr>, cdr1_aa <chr>, cdr2 <chr>,
#> #   cdr2_aa <chr>, cdr3 <chr>, cdr3_aa <chr>, fwr1 <chr>, fwr1_aa <chr>, …

After productiveSeq is run, the unproductive sequences are removed and the duplicate_frequency is recalculated for each sequence. If there were two identical amino acid sequences that differed in their nucleotide sequence, they would be combined and their counts added together.

aa_table %>% 
dplyr::filter(repertoire_id == "TRB_Unsorted_0")
#> # A tibble: 833 × 11
#>    repertoire_id  junction_aa    v_call d_call j_call v_family d_family j_family
#>    <chr>          <chr>          <chr>  <chr>  <chr>  <chr>    <chr>    <chr>   
#>  1 TRB_Unsorted_0 CAAGDTTLYEQYF  TCRBV… TCRBD… TCRBJ… TCRBV06  TCRBD02  TCRBJ02 
#>  2 TRB_Unsorted_0 CAARGGGESYEQYF TCRBV… TCRBD… TCRBJ… TCRBV06  TCRBD02  TCRBJ02 
#>  3 TRB_Unsorted_0 CAGGRGLEEAFF   TCRBV… TCRBD… TCRBJ… TCRBV28  TCRBD01  TCRBJ01 
#>  4 TRB_Unsorted_0 CAGQGVGYTEAFF  TCRBV… TCRBD… TCRBJ… TCRBV02  TCRBD01  TCRBJ01 
#>  5 TRB_Unsorted_0 CAGRVGYTF      TCRBV… TCRBD… TCRBJ… TCRBV02  TCRBD01  TCRBJ01 
#>  6 TRB_Unsorted_0 CAIAQPNEKLFF   TCRBV… TCRBD… TCRBJ… TCRBV10  TCRBD01  TCRBJ01 
#>  7 TRB_Unsorted_0 CAIGAAYEQYF    TCRBV… TCRBD… TCRBJ… TCRBV10  TCRBD02  TCRBJ02 
#>  8 TRB_Unsorted_0 CAIGYNQPQHF    TCRBV… TCRBD… TCRBJ… TCRBV10  TCRBD01  TCRBJ01 
#>  9 TRB_Unsorted_0 CAINPGGTGNSPL… TCRBV… TCRBD… TCRBJ… TCRBV10  TCRBD01  TCRBJ01 
#> 10 TRB_Unsorted_0 CAIRDGYNSPLHF  TCRBV… TCRBD… TCRBJ… TCRBV10  TCRBD01  TCRBJ01 
#> # … with 823 more rows, and 3 more variables: reading_frame <chr>,
#> #   duplicate_count <dbl>, duplicate_frequency <dbl>
…
Searching for published sequences

To search your entire list of data frames for a published amino acid CDR3 TCRB sequence with known antigen specificity, use the function searchPublished.

LymphoSeq2::searchPublished(study_table = aa_table) %>% 
dplyr::filter(!is.na(PMID))
#> # A tibble: 106 × 16
#>    repertoire_id junction_aa     v_call d_call j_call v_family d_family j_family
#>    <chr>         <chr>           <chr>  <chr>  <chr>  <chr>    <chr>    <chr>   
#>  1 TRB_CD4_949   CASSLYGEQYF     TCRBV… TCRBD… TCRBJ… TCRBV28  TCRBD01  TCRBJ02 
#>  2 TRB_CD4_949   CASSQDPGYEQYF   TCRBV… TCRBD… TCRBJ… TCRBV04  TCRBD01  TCRBJ02 
#>  3 TRB_CD4_949   CASSYLGNTGELFF  TCRBV… TCRBD… TCRBJ… TCRBV06  TCRBD01  TCRBJ02 
#>  4 TRB_CD8_949   CASSGQGAYGYTF   TCRBV… TCRBD… TCRBJ… TCRBV05  TCRBD01  TCRBJ01 
#>  5 TRB_CD8_949   CASSIGLYGYTF    TCRBV… TCRBD… TCRBJ… TCRBV19  TCRBD02  TCRBJ01 
#>  6 TRB_CD8_949   CASSIGPLEGNEQFF TCRBV… TCRBD… TCRBJ… TCRBV19  TCRBD02  TCRBJ02 
#>  7 TRB_CD8_949   CASSIGTYGYTF    TCRBV… TCRBD… TCRBJ… TCRBV19  TCRBD01  TCRBJ01 
#>  8 TRB_CD8_949   CASSIGVYGYTF    TCRBV… TCRBD… TCRBJ… TCRBV19  TCRBD02  TCRBJ01 
#>  9 TRB_CD8_949   CASSIRSAYEQYF   TCRBV… TCRBD… TCRBJ… TCRBV19  TCRBD02  TCRBJ02 
#> 10 TRB_CD8_949   CASSLEGDQPQHF   TCRBV… TCRBD… TCRBJ… TCRBV05  TCRBD01  TCRBJ01 
#> # … with 96 more rows, and 8 more variables: reading_frame <chr>,
#> #   duplicate_count <dbl>, duplicate_frequency <dbl>, PMID <fct>, HLA <fct>,
#> #   antigen <fct>, epitope <fct>, prevalence <dbl>
…
